[
  {"id": "010", "name": "Agricultura, ganadería, caza y servicios relacionados con las mismas", "feprl_name": "01 Agricultura; ganadería; caza y servicios relacionados con las mismas" },
  {"id": "011", "name": "Cultivos no perennes", "feprl_name": "011 Cultivos no perennes" },
  {"id": "012", "name": "Cultivos perennes", "feprl_name": "012 Cultivos perennes" },
  {"id": "013", "name": "Propagación de plantas", "feprl_name": "013 Propagación de plantas" },
  {"id": "014", "name": "Producción ganadera", "feprl_name": "014 Producción ganadera" },
  {"id": "015", "name": "Producción agrícola combinada con la producción ganadera", "feprl_name": "015 Producción agrícola combinada con la producción ganadera" },
  {"id": "016", "name": "Actividades de apoyo a la agricultura, a la ganadería y de preparación posterior a la cosecha", "feprl_name": "016 Actividades de apoyo a la agricultura, a la ganadería y de preparación posterior a la cosecha" },
  {"id": "017", "name": "Caza, captura de animales y servicios relacionados con las mismas", "feprl_name": "017 Caza, captura de animales y servicios relacionados con las mismas" },
  {"id": "020", "name": "Silvicultura y explotación foretal", "feprl_name": "02 Silvicultura y explotación forestal" },
  {"id": "021", "name": "Silvicultura y otras actividades forestales", "feprl_name": "021 Silvicultura y otras actividades forestales" },
  {"id": "022", "name": "Explotación de la madera", "feprl_name": "022 Explotación de la madera" },
  {"id": "023", "name": "Recolección de productos silvestres, excepto madera", "feprl_name": "023 Recolección de productos silvestres, excepto madera" },
  {"id": "024", "name": "Servicios de apoyo a la silvicultura", "feprl_name": "024 Servicios de apoyo a la silvicultura" },
  {"id": "030", "name": "Pesca y acuicultura", "feprl_name": "03 Pesca y acuicultura" },
  {"id": "031", "name": "Pesca", "feprl_name": "031 Pesca" },
  {"id": "032", "name": "Acuicultura", "feprl_name": "032 Acuicultura" },
  {"id": "050", "name": "Extracción de antracita, hulla y lignito", "feprl_name": "05 Extracción de antracita; hulla y lignito" },
  {"id": "051", "name": "Extracción de antracita y hulla", "feprl_name": "051 Extracción de antracita y hulla" },
  {"id": "052", "name": "Extracción de lignito", "feprl_name": "052 Extracción de lignito" },
  {"id": "060", "name": "Extracción de crudo de petróleo y gas natural", "feprl_name": "06 Extracción de crudo de petróleo y gas natural" },
  {"id": "061", "name": "Extracción de crudo de petróleo", "feprl_name": "061 Extracción de crudo de petróleo" },
  {"id": "062", "name": "Extracción de gas natural", "feprl_name": "062 Extracción de gas natural" },
  {"id": "070", "name": "Extracción de minerales metálicos", "feprl_name": "07 Extracción de minerales metálicos" },
  {"id": "071", "name": "Extracción de minerales de hierro", "feprl_name": "071 Extracción de minerales de hierro" },
  {"id": "072", "name": "Extracción de minerales metálicos no férreos", "feprl_name": "072 Extracción de minerales metálicos no férreos" },
  {"id": "080", "name": "Otras industrias extractivas", "feprl_name": "08 Otras industrias extractivas" },
  {"id": "081", "name": "Extracción de piedra, arena y arcilla", "feprl_name": "081 Extracción de piedra, arena y arcilla" },
  {"id": "089", "name": "Industrias extractivas n.c.o.p.", "feprl_name": "089 Industrias extractivas n.c.o.p." },
  {"id": "090", "name": "Actividades de apoyo a las industrias extractivas", "feprl_name": "09 Actividades de apoyo a las industrias extractivas" },
  {"id": "091", "name": "Actividades de apoyo a la extracción de petróleo y gas natural", "feprl_name": "091 Actividades de apoyo a la extracción de petróleo y gas natural" },
  {"id": "099", "name": "Actividades de apoyo a otras industrias extractivas", "feprl_name": "099 Actividades de apoyo a otras industrias extractivas" },
  {"id": "100", "name": "Industria de la alimentación", "feprl_name": "10 Industria de la alimentación" },
  {"id": "101", "name": "Procesado y conservación de carne y elaboración de productos cárnicos", "feprl_name": "101 Procesado y conservación de carne y elaboración de productos cárnicos" },
  {"id": "102", "name": "Procesado y conservación de pescados, crustáceos y moluscos", "feprl_name": "102 Procesado y conservación de pescados, crustáceos y moluscos" },
  {"id": "103", "name": "Procesado y conservación de frutas y hortalizas", "feprl_name": "103 Procesado y conservación de frutas y hortalizas" },
  {"id": "104", "name": "Fabricación de aceites y grasas vegetales y animales", "feprl_name": "104 Fabricación de aceites y grasas vegetales y animales" },
  {"id": "105", "name": "Fabricación de productos lácteos", "feprl_name": "105 Fabricación de productos lácteos" },
  {"id": "106", "name": "Fabricación de productos de molinería, almidones y productos amiláceos", "feprl_name": "106 Fabricación de productos de molinería, almidones y productos amiláceos" },
  {"id": "107", "name": "Fabricación de productos de panadería y pastas alimenticias", "feprl_name": "107 Fabricación de productos de panadería y pastas alimenticias" },
  {"id": "108", "name": "Fabricación de otros productos alimenticios", "feprl_name": "108 Fabricación de otros productos alimenticios" },
  {"id": "109", "name": "Fabricación de productos para la alimentación animal", "feprl_name": "109 Fabricación de productos para la alimentación animal" },
  {"id": "110", "name": "Fabricación de bebidas", "feprl_name": "11 Fabricación de bebidas" },
  {"id": "120", "name": "Industria del tabaco", "feprl_name": "12 Industria del tabaco" },
  {"id": "130", "name": "Industria textil", "feprl_name": "13 Industria textil" },
  {"id": "131", "name": "Preparación e hilado de fibras textiles", "feprl_name": "131 Preparación e hilado de fibras textiles" },
  {"id": "132", "name": "Fabricación de tejidos textiles", "feprl_name": "132 Fabricación de tejidos textiles" },
  {"id": "133", "name": "Acabado de textiles", "feprl_name": "133 Acabado de textiles" },
  {"id": "139", "name": "Fabricación de otros productos textiles", "feprl_name": "139 Fabricación de otros productos textiles" },
  {"id": "140", "name": "Confección de prendas de vestir", "feprl_name": "14 Confección de prendas de vestir" },
  {"id": "141", "name": "Confección de prendas de vestir, excepto de peletería", "feprl_name": "141 Confección de prendas de vestir, excepto de peletería" },
  {"id": "142", "name": "Fabricación de artículos de peletería", "feprl_name": "142 Fabricación de artículos de peletería" },
  {"id": "143", "name": "Confección de prendas de vestir de punto", "feprl_name": "143 Confección de prendas de vestir de punto" },
  {"id": "150", "name": "Industria del cuero y del calzado", "feprl_name": "15 Industria del cuero y del calzado" },
  {"id": "151", "name": "Preparación, curtido y acabado del cuero; fabricación de artículos de marroquinería, viaje y de guarnicionería y talabartería; preparación y teñido de pieles", "feprl_name": "151 Preparación, curtido y acabado de cuero y pieles; fabricación de artícul.de marroquinería, viaje etc." },
  {"id": "152", "name": "Fabricación de calzado", "feprl_name": "152 Fabricación de calzado" },
  {"id": "160", "name": "Industria de la madera y del corcho, excepto muebles; cestería y espartería", "feprl_name": "16 Industria de la madera y del corcho; excepto muebles; cestería y espartería" },
  {"id": "161", "name": "Aserrado y cepillado de la madera", "feprl_name": "161 Aserrado y cepillado de la madera" },
  {"id": "162", "name": "Fabricación de productos de madera, corcho, cestería y espartería", "feprl_name": "162 Fabricación de productos de madera, corcho, cestería y espartería" },
  {"id": "170", "name": "Industria del papel", "feprl_name": "17 Industria del papel" },
  {"id": "171", "name": "Fabricación de pasta papelera, papel y cartón", "feprl_name": "171 Fabricación de pasta papelera, papel y cartón" },
  {"id": "172", "name": "Fabricación de artículos de papel y cartón", "feprl_name": "172 Fabricación de artículos de papel y de cartón" },
  {"id": "180", "name": "Artes gráficas y reproducción de soportes grabados", "feprl_name": "18 Artes gráficas y reproducción de soportes grabados" },
  {"id": "181", "name": "Artes gráficas y servicios relacionadas con las mismas", "feprl_name": "181 Artes gráficas y servicios relacionadas con las mismas" },
  {"id": "182", "name": "Reproducción de soportes grabados", "feprl_name": "182 Reproducción de soportes grabados" },
  {"id": "190", "name": "Coquerías y refino de petróleo", "feprl_name": "19 Coquerías y refino de petróleo" },
  {"id": "191", "name": "Coquerías", "feprl_name": "191 Coquerías" },
  {"id": "192", "name": "Refino de petróleo", "feprl_name": "192 Refino de petróleo" },
  {"id": "200", "name": "Industria química", "feprl_name": "20 Industria química" },
  {"id": "201", "name": "Fabricación de productos químicos básicos, compuestos nitrogenados, fertilizantes, plásticos y caucho sintético en formas primarias", "feprl_name": "201 Fabricación de productos químicos básicos, nitrogenados, fertilizantes, plásticos y cauchos primarios" },
  {"id": "202", "name": "Fabricación de pesticidas y otros productos agroquímicos", "feprl_name": "202 Fabricación de pesticidas y otros productos agroquímicos" },
  {"id": "203", "name": "Fabricación de pinturas, barnices y revestimientos similares; tintas de imprenta y masillas", "feprl_name": "203 Fabricación de pinturas, barnices y revestimientos similares; tintas de imprenta y masillas" },
  {"id": "204", "name": "Fabricación de jabones, detergentes y otros artículos de limpieza y abrillantamiento; fabricación de perfumes y cosméticos", "feprl_name": "204 Fabricación de jabones, detergentes y otros artículos de limpieza y abrillantamiento; fabricación de perfumes y cosméticos" },
  {"id": "205", "name": "Fabricación de otros productos químicos", "feprl_name": "205 Fabricación de otros productos químicos" },
  {"id": "206", "name": "Fabricación de fibras artificiales y sintéticas", "feprl_name": "206 Fabricación de fibras artificiales y sintéticas" },
  {"id": "210", "name": "Fabricación de productos farmacéuticos", "feprl_name": "21 Fabricación de productos farmacéuticos" },
  {"id": "211", "name": "Fabricación de productos farmacéuticos de base", "feprl_name": "211 Fabricación de productos farmacéuticos de base" },
  {"id": "212", "name": "Fabricación de especialidades farmacéuticas", "feprl_name": "212 Fabricación de especialidades farmacéuticas" },
  {"id": "220", "name": "Fabricación de productos de caucho y plásticos", "feprl_name": "22 Fabricación de productos de caucho y plásticos" },
  {"id": "221", "name": "Fabricación de productos de caucho", "feprl_name": "221 Fabricación de productos de caucho" },
  {"id": "222", "name": "Fabricación de productos de plástico", "feprl_name": "222 Fabricación de productos de plástico" },
  {"id": "230", "name": "Fabricación de otros productos minerales no metálicos", "feprl_name": "23 Fabricación de otros productos minerales no metálicos" },
  {"id": "231", "name": "Fabricación de vidrio y productos de vidrio", "feprl_name": "231 Fabricación de vidrio y productos de vidrio" },
  {"id": "232", "name": "Fabricación de procutos cerámicos refractarios", "feprl_name": "232 Fabricación de productos cerámicos refractarios" },
  {"id": "233", "name": "Fabricación de productos cerámicos para la construcción", "feprl_name": "233 Fabricación de productos cerámicos para la construcción" },
  {"id": "234", "name": "Fabricación de otros productos cerámicos", "feprl_name": "234 Fabricación de otros productos cerámicos" },
  {"id": "235", "name": "Fabricación de cemento, cal y yeso", "feprl_name": "235 Fabricación de cemento, cal y yeso" },
  {"id": "236", "name": "Fabricación de elementos de hormigón, cemento y yeso", "feprl_name": "236 Fabricación de elementos de hormigón, cemento y yeso" },
  {"id": "237", "name": "Corte, tallado y acabado de la piedra", "feprl_name": "237 Corte, tallado y acabado de la piedra" },
  {"id": "239", "name": "Fabricación de productos abrasivos y productos minerales no metálicos n.c.o.p.", "feprl_name": "239 Fabricación de productos abrasivos y productos minerales no metálicos n.c.o.p." },
  {"id": "240", "name": "Metalurgia; fabricación de productos de hierro, acero y ferroaleaciones", "feprl_name": "24 Metalurgia; fabricación de productos de hierro; acero y ferroaleaciones" },
  {"id": "241", "name": "Fabricación de productos básicos de hierro, aceros y ferroaleaciones", "feprl_name": "241 Fabricación de productos básicos de hierro, acero y ferroaleaciones" },
  {"id": "242", "name": "Fabricación de tubos, tuerías, perfiles huecos y sus accesorios, de acero", "feprl_name": "242 Fabricación de tubos, tuberías, perfiles huecos y sus accesorios, de acero" },
  {"id": "243", "name": "Fabricación de otros productos de primera transformación del acero", "feprl_name": "243 Fabricación de otros productos de primera transformación del acero" },
  {"id": "244", "name": "Producción de metales preciosos y de otros metales no férreos", "feprl_name": "244 Producción de metales preciosos y de otros metales no férreos" },
  {"id": "245", "name": "Fundición de metales", "feprl_name": "245 Fundición de metales" },
  {"id": "250", "name": "Fabricación de productos metálicos, excepto maquinaria y equipo", "feprl_name": "25 Fabricación de productos metálicos; excepto maquinaria y equipo" },
  {"id": "251", "name": "Fabricación de elementos metálicos para la construcción", "feprl_name": "251 Fabricación de elementos metálicos para la construcción" },
  {"id": "252", "name": "Fabricación de cisternas, grandes depósitos y contenedores de metal", "feprl_name": "252 Fabricación de cisternas, grandes depósitos y contenedores de metal" },
  {"id": "253", "name": "Fabricación de generadores de vapor, excepto calderas para calefacción central", "feprl_name": "253 Fabricación de generadores de vapor, excepto calderas para calefacción central" },
  {"id": "254", "name": "Fabricación de armas y municiones", "feprl_name": "254 Fabricación de armas y municiones" },
  {"id": "255", "name": "Forja, estampación y embutición de metales; metalurgia de polvos", "feprl_name": "255 Forja, estampación y embutición de metales; metalurgia de polvos" },
  {"id": "256", "name": "Tratamiento y revestimiento de metales; ingeniería mecánica por cuenta de terceros", "feprl_name": "256 Tratamiento y revestimiento de metales; ingeniería mecánica por cuenta de terceros" },
  {"id": "257", "name": "Fabricación de artículos de cuchillería y cubertería, herramientas y ferretería", "feprl_name": "257 Fabricación de artículos de cuchillería y cubertería, herramientas y ferretería" },
  {"id": "259", "name": "Fabricación de otros productos metálicos", "feprl_name": "259 Fabricación de otros productos metálicos" },
  {"id": "260", "name": "Fabricación de productos informáticos, electrónicos y ópticos", "feprl_name": "26 Fabricación de productos informáticos; electrónicos y ópticos" },
  {"id": "261", "name": "Fabricación de componentes electrónicos y circuitos impresos ensamblados", "feprl_name": "261 Fabricación de componentes electrónicos y circuitos impresos ensamblados" },
  {"id": "262", "name": "Fabricación de ordenadores y equipos periféricos", "feprl_name": "262 Fabricación de ordenadores y equipos periféricos" },
  {"id": "263", "name": "Fabricación de equipos de telecomunicaciones", "feprl_name": "263 Fabricación de equipos de telecomunicaciones" },
  {"id": "264", "name": "Fabricación de productos electrónicos de consumo", "feprl_name": "264 Fabricación de productos electrónicos de consumo" },
  {"id": "265", "name": "Fabricación de instrumentos y aparatos de medida, verificación y navegación; fabricación de relojes", "feprl_name": "265 Fabricación de instrumentos y aparatos de medida, verificación y navegación; fabricación de relojes" },
  {"id": "266", "name": "Fabricación de equipos de radiación, electromédicos y electroterapéuticos", "feprl_name": "266 Fabricación de equipos de radiación, electromédicos y electroterapéuticos" },
  {"id": "267", "name": "Fabricación de instrumentos de óptica y equipo fotográfico", "feprl_name": "267 Fabricación de instrumentos de óptica y equipo fotográfico" },
  {"id": "268", "name": "Fabricación de soportes magnéticos y ópticos", "feprl_name": "268 Fabricación de soportes magnéticos y ópticos" },
  {"id": "270", "name": "Fabricación de material y equipo eléctrico", "feprl_name": "27 Fabricación de material y equipo eléctrico" },
  {"id": "271", "name": "Fabricación de motores, generadores y transformadores eléctricos, y de aparatos de distribución y control eléctrico", "feprl_name": "271 Fabricación de motores, generadores y transformadores eléctricos, y de aparatos de distribución y control eléctrico" },
  {"id": "272", "name": "Fabricación de pilas y acumuladores eléctricos", "feprl_name": "272 Fabricación de pilas y acumuladores eléctricos" },
  {"id": "273", "name": "Fabricación de cables y dispositivos de cableado", "feprl_name": "273 Fabricación de cables y dispositivos de cableado" },
  {"id": "274", "name": "Fabricación de lámparas y aparatos eléctricos de iluminación", "feprl_name": "274 Fabricación de lámparas y aparatos eléctricos de iluminación" },
  {"id": "275", "name": "Fabricación de aparatos domésticos", "feprl_name": "275 Fabricación de aparatos domésticos" },
  {"id": "279", "name": "Fabricación de otro material y equipo eléctrico", "feprl_name": "279 Fabricación de otro material y equipo eléctrico" },
  {"id": "280", "name": "Fabricación de maquinaria y equipo n.c.o.p.", "feprl_name": "28 Fabricación de maquinaria y equipo n.c.o.p." },
  {"id": "281", "name": "Fabricación de maquinaria de uso general", "feprl_name": "281 Fabricación de maquinaria de uso general" },
  {"id": "282", "name": "Fabricación de otra maquinaria de uso general", "feprl_name": "282 Fabricación de otra maquinaria de uso general" },
  {"id": "283", "name": "Fabricación de maquinaria agraria y forestal", "feprl_name": "283 Fabricación de maquinaria agraria y forestal" },
  {"id": "284", "name": "Fabricación de máquinas herramienta para trabajar el metal y otras máquinas herramienta", "feprl_name": "284 Fabricación de máquinas herramienta para trabajar el metal y otras máquinas herramienta" },
  {"id": "289", "name": "Fabricación de otra maquinaria para usos específicos", "feprl_name": "289 Fabricación de otra maquinaria para usos específicos" },
  {"id": "290", "name": "Fabricación de vehículos de motor, remolques y semirremolques", "feprl_name": "29 Fabricación de vehículos de motor; remolques y semirremolques" },
  {"id": "291", "name": "Fabricación de vehículos de motor", "feprl_name": "291 Fabricación de vehículos de motor" },
  {"id": "292", "name": "Fabricación de carrocerías para vehículos de motor; fabricación de remolques y semirremolques", "feprl_name": "292 Fabricación de carrocerías para vehículos de motor; fabricación de remolques y semirremolques" },
  {"id": "293", "name": "Fabricación de componentes, piezas y accesorios para vehículos de motor", "feprl_name": "293 Fabricación de componentes, piezas y accesorios para vehículos de motor" },
  {"id": "300", "name": "Fabricación de otro material de transporte", "feprl_name": "30 Fabricación de otro material de transporte" },
  {"id": "301", "name": "Construcción naval", "feprl_name": "301 Construcción naval" },
  {"id": "302", "name": "Fabricación de locomotoras y material ferroviario", "feprl_name": "302 Fabricación de locomotoras y material ferroviario" },
  {"id": "303", "name": "Construcción aeronáutica y espacial y su maquinaria", "feprl_name": "303 Construcción aeronáutica y espacial y su maquinaria" },
  {"id": "304", "name": "Fabricación de vehículos militares de combate", "feprl_name": "304 Fabricación de vehículos militares de combate" },
  {"id": "309", "name": "Fabricación de material de transporte n.c.o.p.", "feprl_name": "309 Fabricación de material de transporte n.c.o.p." },
  {"id": "310", "name": "Fabricación de muebles", "feprl_name": "31 Fabricación de muebles" },
  {"id": "320", "name": "Otras industrias manufactureras", "feprl_name": "32 Otras industrias manufactureras" },
  {"id": "321", "name": "Fabricación de artículos de joyería, bisutería y similares", "feprl_name": "321 Fabricación de artículos de joyería, bisutería y similares" },
  {"id": "322", "name": "Fabricación de instrumentos musicales", "feprl_name": "322 Fabricación de instrumentos musicales" },
  {"id": "323", "name": "Fabricación de artículos de deporte", "feprl_name": "323 Fabricación de artículos de deporte" },
  {"id": "324", "name": "Fabricación de juegos y juguetes", "feprl_name": "324 Fabricación de juegos y juguetes" },
  {"id": "325", "name": "Fabricación de instrumentos y suministros médicos y odontológicos", "feprl_name": "325 Fabricación de instrumentos y suministros médicos y odontológicos" },
  {"id": "329", "name": "Industrias manufactureras n.c.o.p.", "feprl_name": "329 Industrias manufactureras n.c.o.p." },
  {"id": "330", "name": "Reparación e instalación de maquinaria y equipo", "feprl_name": "33 Reparación e instalación de maquinaria y equipo" },
  {"id": "331", "name": "Reparación de productos metálicos, maquinaria y equipo", "feprl_name": "331 Reparación de productos metálicos, maquinaria y equipo" },
  {"id": "332", "name": "Instalación de máquinas y equipos industriales", "feprl_name": "332 Instalación de máquinas y equipos industriales" },
  {"id": "350", "name": "Suministro de energía eléctrica, gas, vapor y aire acondicionado", "feprl_name": "35 Suministro de energía eléctrica; gas; vapor y aire acondicionado" },
  {"id": "351", "name": "Producción, transporte y distribución de energía eléctrica", "feprl_name": "351 Producción, transporte y distribución de energía eléctrica" },
  {"id": "352", "name": "Producción de gas; distribución por tubería de combustibles gaseosos", "feprl_name": "352 Producción de gas; distribución por tubería de combustibles gaseosos" },
  {"id": "353", "name": "Suministro de vapor y aire aconcidionado", "feprl_name": "353 Suministro de vapor y aire acondicionado" },
  {"id": "360", "name": "Captación, depuración y distribución de agua", "feprl_name": "36 Captación; depuración y distribución de agua" },
  {"id": "370", "name": "Recogida y tratamiento de aguas residuales", "feprl_name": "37 Recogida y tratamiento de aguas residuales" },
  {"id": "380", "name": "Recogida, tratamiento y eliminación de residuos; valorización", "feprl_name": "38 Recogida; tratamiento y eliminación de residuos; valorización" },
  {"id": "381", "name": "Recogida de residuos", "feprl_name": "381 Recogida de residuos" },
  {"id": "382", "name": "Tratamiento y eliminación de residuos", "feprl_name": "382 Tratamiento y eliminación de residuos" },
  {"id": "383", "name": "Valorización", "feprl_name": "383 Valorización" },
  {"id": "390", "name": "Actividades de descontaminación y otros servicios de gestión de residuos", "feprl_name": "39 Actividades de descontaminación y otros servicios de gestión de residuos" },
  {"id": "410", "name": "Construcción de edificios", "feprl_name": "41 Construcción de edificios" },
  {"id": "411", "name": "Promoción inmobiliaria", "feprl_name": "411 Promoción inmobiliaria" },
  {"id": "412", "name": "Construcción de edificios", "feprl_name": "412 Construcción de edificios" },
  {"id": "420", "name": "Ingeniería civil", "feprl_name": "42 Ingeniería civil" },
  {"id": "421", "name": "Construcción de carretereas y vías férreas, puentes y túneles", "feprl_name": "421 Construcción de carreteras y vías férreas, puentes y túneles" },
  {"id": "422", "name": "Construcción de redes", "feprl_name": "422 Construcción de redes" },
  {"id": "429", "name": "Construcción de otros proyectos de ingeniería civil", "feprl_name": "429 Construcción de otros proyectos de ingeniería civil" },
  {"id": "430", "name": "Actividades de construcción especializada", "feprl_name": "43 Actividades de construcción especializada" },
  {"id": "431", "name": "Demolición y preparación de terrenos", "feprl_name": "431 Demolición y preparación de terrenos" },
  {"id": "432", "name": "Instalaciones eléctricas, de fontanería y otras instalaciones en obras de construcción", "feprl_name": "432 Instalaciones eléctricas, de fontanería y otras instalaciones en obras de construcción" },
  {"id": "433", "name": "Acabado de edificios", "feprl_name": "433 Acabado de edificios" },
  {"id": "439", "name": "Otras actividades de construcción especializada", "feprl_name": "439 Otras actividades de construcción especializada" },
  {"id": "450", "name": "Venta y reparación de vehículos de motor y motocicletas", "feprl_name": "45 Venta y reparación de vehículos de motor y motocicletas" },
  {"id": "451", "name": "Venta de vehículos de motor", "feprl_name": "451 Venta de vehículos de motor" },
  {"id": "452", "name": "Mantenimiento y reparación de vehículos de motor", "feprl_name": "452 Mantenimiento y reparación de vehículos de motor" },
  {"id": "453", "name": "Comercio de repuestos y accesorios de vehículos de motor", "feprl_name": "453 Comercio de repuestos y accesorios de vehículos de motor" },
  {"id": "454", "name": "Venta, mantenimiento y reparación de motocicletas y de sus repuestos y accesorios", "feprl_name": "454 Venta, mantenimiento y reparación de motocicletas y de sus repuestos y accesorios" },
  {"id": "460", "name": "Comercio al por mayor e intermediarios del comercio, excepto de vehículos de motor y motocicletas", "feprl_name": "46 Comercio al por mayor e intermediarios del comercio; excepto de vehículos de motor y motocicletas" },
  {"id": "461", "name": "Intermediarios del comercio", "feprl_name": "461 Intermediarios del comercio" },
  {"id": "462", "name": "Comercio al por mayor de materias primas agrarias y de animales vivos", "feprl_name": "462 Comercio al por mayor de materias primas agrarias y de animales vivos" },
  {"id": "463", "name": "Comercio al por mayor de productos alimenticios, bebidas y tabaco", "feprl_name": "463 Comercio al por mayor de productos alimenticios, bebidas y tabaco" },
  {"id": "464", "name": "Comercio al por mayor de artículos de uso doméstico", "feprl_name": "464 Comercio al por mayor de artículos de uso doméstico" },
  {"id": "465", "name": "Comercio al por mayor de equipos para las tecnologías de la información y las comunicaciones", "feprl_name": "465 Comercio al por mayor de equipos para las tecnologías de la información y las comunicaciones" },
  {"id": "466", "name": "Comercio al por mayor de otra maquinaria, equipos y suministros", "feprl_name": "466 Comercio al por mayor de otra maquinaria, equipos y suministros" },
  {"id": "467", "name": "Otro comercio al por mayor especializado", "feprl_name": "467 Otro comercio al por mayor especializado" },
  {"id": "469", "name": "Comercio al por mayor no especializado", "feprl_name": "469 Comercio al por mayor no especializado" },
  {"id": "470", "name": "Comercio al por menor, excepto de vehículos de motor y motocicletas", "feprl_name": "47 Comercio al por menor; excepto de vehículos de motor y motocicletas" },
  {"id": "471", "name": "Comercio al por menor en establecimientos no especializados", "feprl_name": "471 Comercio al por menor en establecimientos no especializados" },
  {"id": "472", "name": "Comercio al por menor de productos alimenticios, bebidas y tabaco en establecimientos especializados", "feprl_name": "472 Comercio al por menor de productos alimenticios, bebidas y tabaco en establecimientos especializados" },
  {"id": "473", "name": "Comercio al por menor de combustible para la automoción en establemientos especializados", "feprl_name": "473 Comercio al por menor de combustible para la automoción en establecimientos especializados" },
  {"id": "474", "name": "Comercio al por menor de equipos para las tecnologías de la información y las comunicaciones en establecimientos especializados", "feprl_name": "474 Comercio al por menor de equipos para las tecnologías de la información y las comunicaciones en establecimientos especializados" },
  {"id": "475", "name": "Comercio al por menor de otros artículos de uso doméstico en establemientos especializados", "feprl_name": "475 Comercio al por menor de otros artículos de uso doméstico en establecimientos especializados" },
  {"id": "476", "name": "Comercio al por menor de artículos culturales y recreativos en establecimientos especializados", "feprl_name": "476 Comercio al por menor de artículos culturales y recreativos en establecimientos especializados" },
  {"id": "477", "name": "Comercio al por menor de otros artículos en establecimientos especializados", "feprl_name": "477 Comercio al por menor de otros artículos en establecimientos especializados" },
  {"id": "478", "name": "Comercio al por menor en puestos de venta y mercadillos", "feprl_name": "478 Comercio al por menor en puestos de venta y mercadillos" },
  {"id": "479", "name": "Comercio al por menor no realizado ni en establecimientos, ni en puestos de venta ni en mercadillos", "feprl_name": "479 Comercio al por menor no realizado ni en establecimientos, ni en puestos de venta ni en mercadillos" },
  {"id": "490", "name": "Transporte terrestre y por tubería", "feprl_name": "49 Transporte terrestre y por tubería" },
  {"id": "491", "name": "Transporte interurbano de pasajeros por ferrocarril", "feprl_name": "491 Transporte interurbano de pasajeros por ferrocarril" },
  {"id": "492", "name": "Transporte de mercancías por ferrocarril", "feprl_name": "492 Transporte de mercancías por ferrocarril" },
  {"id": "493", "name": "Otro transporte terrestre de pasajeros", "feprl_name": "493 Otro transporte terrestre de pasajeros" },
  {"id": "494", "name": "Transporte de mercancías por carretera y servicios de mudanza", "feprl_name": "494 Transporte de mercancías por carretera y servicios de mudanza" },
  {"id": "495", "name": "Transporte por tubería", "feprl_name": "495 Transporte por tubería" },
  {"id": "500", "name": "Transporte marítimo y por vías navegables interiores", "feprl_name": "50 Transporte marítimo y por vías navegables interiores" },
  {"id": "501", "name": "Transporte marítimo de pasajeros", "feprl_name": "501 Transporte marítimo de pasajeros" },
  {"id": "502", "name": "Transporte marítimo de mercancías", "feprl_name": "502 Transporte marítimo de mercancías" },
  {"id": "503", "name": "Transporte de pasajeros por vías navegables interiores", "feprl_name": "503 Transporte de pasajeros por vías navegables interiores" },
  {"id": "504", "name": "Transporte de mercancías por vías navegables interiores", "feprl_name": "504 Transporte de mercancías por vías navegables interiores" },
  {"id": "510", "name": "Transporte aéreo", "feprl_name": "51 Transporte aéreo" },
  {"id": "511", "name": "Transporte aéreo de pasajeros", "feprl_name": "511 Transporte aéreo de pasajeros" },
  {"id": "512", "name": "Transporte aéreo de mercancías y transporte espacial", "feprl_name": "512 Transporte aéreo de mercancías y transporte espacial" },
  {"id": "520", "name": "Almacenamiento y actividades anexas al transporte", "feprl_name": "52 Almacenamiento y actividades anexas al transporte" },
  {"id": "521", "name": "Depósito y almacenamiento", "feprl_name": "521 Depósito y almacenamiento" },
  {"id": "522", "name": "Actividades anexas al transporte", "feprl_name": "522 Actividades anexas al transporte" },
  {"id": "530", "name": "Actividades postales y de correos", "feprl_name": "53 Actividades postales y de correos" },
  {"id": "531", "name": "Actividades postales sometidas a la obligación del servicio universal", "feprl_name": "531 Actividades postales sometidas a la obligación del servicio universal" },
  {"id": "532", "name": "Otras actividades postales y de correos", "feprl_name": "532 Otras actividades postales y de correos" },
  {"id": "550", "name": "Servicios de alojamiento", "feprl_name": "55 Servicios de alojamiento" },
  {"id": "551", "name": "Hoteles y alojamientos similares", "feprl_name": "551 Hoteles y alojamientos similares" },
  {"id": "552", "name": "Alojamientos turísticos y otros alojamientos de corta estancia", "feprl_name": "552 Alojamientos turísticos y otros alojamientos de corta estancia" },
  {"id": "553", "name": "Campings", "feprl_name": "553 Campings" },
  {"id": "559", "name": "Otros alojamientos", "feprl_name": "559 Otros alojamientos" },
  {"id": "560", "name": "Servicios de comidas y bebidas", "feprl_name": "56 Servicios de comidas y bebidas" },
  {"id": "561", "name": "Restaurantes y puestos de comidas", "feprl_name": "561 Restaurantes y puestos de comidas" },
  {"id": "562", "name": "Provisión de comidas preparadas para eventos y otros servicios de comidas", "feprl_name": "562 Provisión de comidas preparadas para eventos y otros servicios de comidas" },
  {"id": "563", "name": "Establecimientos de bebidas", "feprl_name": "563 Establecimientos de bebidas" },
  {"id": "580", "name": "Edición", "feprl_name": "58 Edición" },
  {"id": "581", "name": "Edición de libros, periódicos y otras actividades editoriales", "feprl_name": "581 Edición de libros, periódicos y otras actividades editoriales" },
  {"id": "582", "name": "Edición de programas informáticos", "feprl_name": "582 Edición de programas informáticos" },
  {"id": "590", "name": "Actividades cinematográficas, de vídeo y de programas de televisión, grabación de sonido y edición musical", "feprl_name": "59 Actividades cinematográficas; de vídeo y de programas de televisión; grabación de sonido y edición musical" },
  {"id": "591", "name": "Actividades cinematográficas, de vídeo y de programas de televisión", "feprl_name": "591 Actividades cinematográficas, de vídeo y de programas de televisión" },
  {"id": "592", "name": "Actividades de grabación de sonido y edición musical", "feprl_name": "592 Actividades de grabación de sonido y edición musical" },
  {"id": "600", "name": "Actividades de programación y emisión de radio y televisión", "feprl_name": "60 Actividades de programación y emisión de radio y televisión" },
  {"id": "601", "name": "Actividades de radiodifusión", "feprl_name": "601 Actividades de radiodifusión" },
  {"id": "602", "name": "Actividades de programación y emisión de televisión", "feprl_name": "602 Actividades de programación y emisión de televisión" },
  {"id": "610", "name": "Telecomunicaciones", "feprl_name": "61 Telecomunicaciones" },
  {"id": "611", "name": "Telecomunicaciones por cable", "feprl_name": "611 Telecomunicaciones por cable" },
  {"id": "612", "name": "Telecomunicaciones inalámbricas", "feprl_name": "612 Telecomunicaciones inalámbricas" },
  {"id": "613", "name": "Telefomunicaciones por satélite", "feprl_name": "613 Telecomunicaciones por satélite" },
  {"id": "619", "name": "Otras actividades de telecomunicaciones", "feprl_name": "619 Otras actividades de telecomunicaciones" },
  {"id": "620", "name": "Programación, consultoría y otras actividades relacionadas con la informática", "feprl_name": "62 Programación; consultoría y otras actividades relacionadas con la informática" },
  {"id": "630", "name": "Servicio de información", "feprl_name": "63 Servicios de información" },
  {"id": "631", "name": "Proceso de datos, hosting y actividades relacionadas; portales web", "feprl_name": "631 Proceso de datos, hosting y actividades relacionadas; portales web" },
  {"id": "639", "name": "Otros servicios de información", "feprl_name": "639 Otros servicios de información" },
  {"id": "640", "name": "Servicios financieros, excepto seguros y fondos de pensiones", "feprl_name": "64 Servicios financieros; excepto seguros y fondos de pensiones" },
  {"id": "641", "name": "Intermediación monetaria", "feprl_name": "641 Intermediación monetaria" },
  {"id": "642", "name": "Actividades de las sociedades holding", "feprl_name": "642 Actividades de las sociedades holding" },
  {"id": "643", "name": "Inversión colectiva, fondos y entidades financieras similares", "feprl_name": "643 Inversión colectiva, fondos y entidades financieras similares" },
  {"id": "649", "name": "Otros servicios financieros, excepto seguros y fondos de pensiones", "feprl_name": "649 Otros servicios financieros, excepto seguros y fondos de pensiones" },
  {"id": "650", "name": "Seguros, reaseguros y fondos de pensiones, excepto Seguridad Social obligatoria", "feprl_name": "65 Seguros; reaseguros y fondos de pensiones; excepto Seguridad Social obligatoria" },
  {"id": "651", "name": "Seguros", "feprl_name": "651 Seguros" },
  {"id": "652", "name": "Reaseguros", "feprl_name": "652 Reaseguros" },
  {"id": "653", "name": "Fondos de pensiones", "feprl_name": "653 Fondos de pensiones" },
  {"id": "660", "name": "Actividades auxiliares a los servicios financieros y a los seguros", "feprl_name": "66 Actividades auxiliares a los servicios financieros y a los seguros" },
  {"id": "661", "name": "Actividades auxiliares a los servicios financieros, excepto seguros y fondos de pensiones", "feprl_name": "661 Actividades auxiliares a los servicios financieros, excepto seguros y fondos de pensiones" },
  {"id": "662", "name": "Actividades auxiliares a seguros y fondos de pensiones", "feprl_name": "662 Actividades auxiliares a seguros y fondos de pensiones" },
  {"id": "663", "name": "Actividades de gestión de fondos", "feprl_name": "663 Actividades de gestión de fondos" },
  {"id": "680", "name": "Actividades inmobiliarias", "feprl_name": "68 Actividades inmobiliarias" },
  {"id": "681", "name": "Compraventa de bienes inmobiliarios por cuenta propia", "feprl_name": "681 Compraventa de bienes inmobiliarios por cuenta propia" },
  {"id": "682", "name": "Alquiler de bienes inmobiliarios por cuenta propia", "feprl_name": "682 Alquiler de bienes inmobiliarios por cuenta propia" },
  {"id": "683", "name": "Actividades inmobiliarias por cuenta de terceros", "feprl_name": "683 Actividades inmobiliarias por cuenta de terceros" },
  {"id": "690", "name": "Actividades jurídicas y de contabilidad", "feprl_name": "69 Actividades jurídicas y de contabilidad" },
  {"id": "691", "name": "Actividades jurídicas", "feprl_name": "691 Actividades jurídicas" },
  {"id": "692", "name": "Actividades de contabilidad, teneduría de libros, auditoría y asesoría fiscal", "feprl_name": "692 Actividades de contabilidad, teneduría de libros, auditoría y asesoría fiscal" },
  {"id": "700", "name": "Actividades de las sedes centrales; actividades de consultoría de gestión empresarial", "feprl_name": "70 Actividades de las sedes centrales; actividades de consultoría de gestión empresarial" },
  {"id": "701", "name": "Actividades de las sedes centrales", "feprl_name": "701 Actividades de las sedes centrales" },
  {"id": "702", "name": "Actividades de consultoría de gestión empresarial", "feprl_name": "702 Actividades de consultoría de gestión empresarial" },
  {"id": "710", "name": "Servicios técnicos de arquitectura e ingeniería; ensayos y análisis técnicos", "feprl_name": "71 Servicios técnicos de arquitectura e ingeniería; ensayos y análisis técnicos" },
  {"id": "711", "name": "Servicios técnicos de arquitectura e ingeniería y otras actividades", "feprl_name": "711 Servicios técnicos de arquitectura e ingeniería y otras actividades relacionadas con el asesoramiento técnico" },
  {"id": "712", "name": "Ensayos y análisis técnicos", "feprl_name": "712 Ensayos y análisis técnicos" },
  {"id": "720", "name": "Investigación y desarrollo", "feprl_name": "72 Investigación y desarrollo" },
  {"id": "721", "name": "Investigación y desarrollo experimental en ciencias naturales y técnicas", "feprl_name": "721 Investigación y desarrollo experimental en ciencias naturales y técnicas" },
  {"id": "722", "name": "Investigación y desarrollo exprimental en ciencias sociales y humanidades", "feprl_name": "722 Investigación y desarrollo experimental en ciencias sociales y humanidades" },
  {"id": "730", "name": "Publicidad y estudios de mercado", "feprl_name": "73 Publicidad y estudios de mercado" },
  {"id": "731", "name": "Publicidad", "feprl_name": "731 Publicidad" },
  {"id": "732", "name": "Estudios de mercado y realización de encuestas de opinión pública", "feprl_name": "732 Estudios de mercado y realización de encuestas de opinión pública" },
  {"id": "740", "name": "Otras actividades profesionales, científicas y técnicas", "feprl_name": "74 Otras actividades profesionales; científicas y técnicas" },
  {"id": "741", "name": "Actividades de diseño especializado", "feprl_name": "741 Actividades de diseño especializado" },
  {"id": "742", "name": "Actividades de fotografía", "feprl_name": "742 Actividades de fotografía" },
  {"id": "743", "name": "Actividades de traducción e interpretación", "feprl_name": "743 Actividades de traducción e interpretación" },
  {"id": "749", "name": "Otras actividades profesionales, científicas y técnicas n.c.o.p.", "feprl_name": "749 Otras actividades profesionales, científicas y técnicas n.c.o.p." },
  {"id": "750", "name": "Actividades veterinarias", "feprl_name": "75 Actividades veterinarias" },
  {"id": "770", "name": "Actividades de alquiler", "feprl_name": "77 Actividades de alquiler" },
  {"id": "771", "name": "Alquiler de vehículos de motor", "feprl_name": "771 Alquiler de vehículos de motor" },
  {"id": "772", "name": "Alquiler de efectos personales y artículos de uso doméstico", "feprl_name": "772 Alquiler de efectos personales y artículos de uso doméstico" },
  {"id": "773", "name": "Alquiler de otra maquinaria, equipos y bienes tangibles", "feprl_name": "773 Alquiler de otra maquinaria, equipos y bienes tangibles" },
  {"id": "774", "name": "Arrendamiento de la propiedad intelectual y productos similares, excepto trabajos protegidos por los derechos de autor", "feprl_name": "774 Arrendamiento de la propiedad intelectual y productos similares, excepto trabajos protegidos por los derechos de autor" },
  {"id": "780", "name": "Actividades relacionadas con el empleo", "feprl_name": "78 Actividades relacionadas con el empleo" },
  {"id": "781", "name": "Actividades de las agencias de colocación", "feprl_name": "781 Actividades de las agencias de colocación" },
  {"id": "782", "name": "Actividades de las empresas de trabajo temporal", "feprl_name": "782 Actividades de las empresas de trabajo temporal" },
  {"id": "783", "name": "Otra provisión de recursos humanos", "feprl_name": "783 Otra provisión de recursos humanos" },
  {"id": "790", "name": "Actividades de agencias de viajes, operadores turísticos, servicios de reservas y actividades relacionadas con los mismos", "feprl_name": "79 Actividades de agencias de viajes; operadores turísticos; servicios de reservas y actividades relacionadas con los mismos" },
  {"id": "791", "name": "Actividades de agencias de viajes y operadores turísticos", "feprl_name": "791 Actividades de agencias de viajes y operadores turísticos" },
  {"id": "799", "name": "Otros servicios de reservas y actividades relacionadas con los mismos", "feprl_name": "799 Otros servicios de reservas y actividades relacionadas con los mismos" },
  {"id": "800", "name": "Actividades de seguridad e investigación", "feprl_name": "80 Actividades de seguridad e investigación" },
  {"id": "801", "name": "Actividades de seguridad privada", "feprl_name": "801 Actividades de seguridad privada" },
  {"id": "802", "name": "Servicios de sistemas de seguridad", "feprl_name": "802 Servicios de sistemas de seguridad" },
  {"id": "803", "name": "Actividades de investigación", "feprl_name": "803 Actividades de investigación" },
  {"id": "810", "name": "Servicios a edificios y actividades de jardinería", "feprl_name": "81 Servicios a edificios y actividades de jardinería" },
  {"id": "811", "name": "Servicios integrales a edificios e instalaciones", "feprl_name": "811 Servicios integrales a edificios e instalaciones" },
  {"id": "812", "name": "Actividades de limpieza", "feprl_name": "812 Actividades de limpieza" },
  {"id": "813", "name": "Actividades de jardinería", "feprl_name": "813 Actividades de jardinería" },
  {"id": "820", "name": "Actividades administrativas de oficina y otras actividades auxiliares a las empresas", "feprl_name": "82 Actividades administrativas de oficina y otras actividades auxiliares a las empresas" },
  {"id": "821", "name": "Actividades administrativas y auxiliares de oficina", "feprl_name": "821 Actividades administrativas y auxiliares de oficina" },
  {"id": "822", "name": "Actividades de los centros de llamadas", "feprl_name": "822 Actividades de los centros de llamadas" },
  {"id": "823", "name": "Organización de convenciones y ferias de muestras", "feprl_name": "823 Organización de convenciones y ferias de muestras" },
  {"id": "829", "name": "Actividades de apoyo a las empresas n.c.o.p.", "feprl_name": "829 Actividades de apoyo a las empresas n.c.o.p." },
  {"id": "840", "name": "Administración Pública y defensa; Seguridad Social obligatoria", "feprl_name": "84 Administración Pública y defensa; Seguridad Social obligatoria" },
  {"id": "841", "name": "Administración Pública y de la política económica y social", "feprl_name": "841 Administración Pública y de la política económica y social" },
  {"id": "842", "name": "Prestación de servicios a la comunidad en general", "feprl_name": "NULL" },
  {"id": "843", "name": "Seguridad Social obligatoria", "feprl_name": "843 Seguridad Social obligatoria" },
  {"id": "850", "name": "Educación", "feprl_name": "85 Educación" },
  {"id": "851", "name": "Educación preprimaria", "feprl_name": "851 Educación preprimaria" },
  {"id": "852", "name": "Educación primaria", "feprl_name": "852 Educación primaria" },
  {"id": "853", "name": "Educación secundaria", "feprl_name": "853 Educación secundaria" },
  {"id": "854", "name": "Educación postsecundaria", "feprl_name": "854 Educación postsecundaria" },
  {"id": "855", "name": "Otra educación", "feprl_name": "855 Otra educación" },
  {"id": "856", "name": "Actividades auxiliares a la educación", "feprl_name": "856 Actividades auxiliares a la educación" },
  {"id": "860", "name": "Actividades sanitarias", "feprl_name": "86 Actividades sanitarias" },
  {"id": "861", "name": "Actividades hospitalarias", "feprl_name": "861 Actividades hospitalarias" },
  {"id": "862", "name": "Actividades médicas y odontológicas", "feprl_name": "862 Actividades médicas y odontológicas" },
  {"id": "869", "name": "Otras actividades sanitarias", "feprl_name": "869 Otras actividades sanitarias" },
  {"id": "870", "name": "Asistencia en establecimientos residenciales", "feprl_name": "87 Asistencia en establecimientos residenciales" },
  {"id": "871", "name": "Asistencia en establecimientos residenciales con cuidados sanitarios", "feprl_name": "871 Asistencia en establecimientos residenciales con cuidados sanitarios" },
  {"id": "872", "name": "Asistencia en establecimientos residenciales para personas con discapacidad intelectual, enfermedad mental y drogodependencia", "feprl_name": "872 Asistencia en establecimientos residenciales para personas con discapacidad intelectual, enfermedad mental y drogodependencia" },
  {"id": "873", "name": "Asistencia en establecimientos residenciales para personas mayores y con discapacidad física", "feprl_name": "873 Asistencia en establecimientos residenciales para personas mayores y con discapacidad física" },
  {"id": "879", "name": "Otras actividades de asistencia en establecimientos residenciales", "feprl_name": "879 Otras actividades de asistencia en establecimientos residenciales" },
  {"id": "880", "name": "Actividades de servicios sociales sin alojamiento", "feprl_name": "88 Actividades de servicios sociales sin alojamiento" },
  {"id": "881", "name": "Actividades de servicios sociales sin alojamiento para personas mayores y con discapacidad", "feprl_name": "881 Actividades de servicios sociales sin alojamiento para personas mayores y con discapacidad" },
  {"id": "889", "name": "Otras actividades de servicios sociales sin alojamiento", "feprl_name": "889 Otras actividades de servicios sociales sin alojamiento" },
  {"id": "900", "name": "Actividades de creación, artísticas y espectáculos", "feprl_name": "90 Actividades de creación; artísticas y espectáculos" },
  {"id": "910", "name": "Actividades de bibliotecas, archivos, museos y otras actividades culturales", "feprl_name": "91 Actividades de bibliotecas; archivos; museos y otras actividades culturales" },
  {"id": "920", "name": "Actividades de juegos de azar y apuestas", "feprl_name": "92 Actividades de juegos de azar y apuestas" },
  {"id": "930", "name": "Actividades deportivas, recreativas y de entretenimiento", "feprl_name": "93 Actividades deportivas; recreativas y de entretenimiento" },
  {"id": "931", "name": "Actividades deportivas", "feprl_name": "931 Actividades deportivas" },
  {"id": "932", "name": "Actividades recreativas y de entretenimiento", "feprl_name": "932 Actividades recreativas y de entretenimiento" },
  {"id": "940", "name": "Actividades asociativas", "feprl_name": "94 Actividades asociativas" },
  {"id": "941", "name": "Actividades de organizaciones empresariales, profesionales y patronales", "feprl_name": "941 Actividades de organizaciones empresariales, profesionales y patronales" },
  {"id": "942", "name": "Actividad sindicales", "feprl_name": "942 Actividades sindicales" },
  {"id": "949", "name": "Otra actividades asociativas", "feprl_name": "949 Otras actividades asociativas" },
  {"id": "950", "name": "Reparación de ordenadores, efectos personales y artículos de uso doméstico", "feprl_name": "95 Reparación de ordenadores; efectos personales y artículos de uso doméstico" },
  {"id": "951", "name": "Reparación de ordenadores y equipos de comunicación", "feprl_name": "951 Reparación de ordenadores y equipos de comunicación" },
  {"id": "952", "name": "Reparación de efectos personales y artículos de uso doméstico", "feprl_name": "952 Reparación de efectos personales y artículos de uso doméstico" },
  {"id": "960", "name": "Otros servicios personales", "feprl_name": "96 Otros servicios personales" },
  {"id": "970", "name": "Actividades de los hogares como empleadores de personal doméstico", "feprl_name": "97 Actividades de los hogares como empleadores de personal doméstico" },
  {"id": "980", "name": "Actividades de los hogares como productores de bienes y servicios para uso propio", "feprl_name": "98 Actividades de los hogares como productores de bienes y servicios para uso propio" },
  {"id": "981", "name": "Actividades de los hogares como prodcutores de bienes para uso propio", "feprl_name": "981 Actividades de los hogares como productores de bienes para uso propio" },
  {"id": "982", "name": "Actividades de los hogares como productores de servicios para uso propio", "feprl_name": "982 Actividades de los hogares como productores de servicios para uso propio" },
  {"id": "990", "name": "Actividades de organizaciones y organismos extraterritoriales", "feprl_name": "99 Actividades de organizaciones y organismos extraterritoriales" }
]
